package Module_1;

import java.util.Scanner;

class New_arg {
    private double [] z = new double[5];
    private Inter handler;
     New_arg(Inter action) {
        this.handler=action;
    }
     double f(double[] X){
        double Y=3;
        double Yn=insert(X);
        double T=Math.abs(Y-Yn)/Y;
        return T;
    }
    private double insert(double [] X){
        System.out.println("Введите статистические данные");
        double x[][]= new double[4][5];
        double y[] = new double[5];
        double f[][]= new double[5][5];
        for (int i = 0; i < 5; i++) {
            f[0][i]=1;
        }
        Scanner number = new Scanner(System.in);
        for (int i = 0; i < 5; i++) {
            System.out.print("Введите Y: ");
            y[i]= number.nextDouble();
            System.out.print("Введите X1: ");
            x[0][i] = number.nextDouble();
            System.out.print("Введите X2: ");
            x[1][i] = number.nextDouble();
            System.out.print("Введите X3: ");
            x[2][i] = number.nextDouble();
            System.out.print("Введите X4: ");
            x[3][i] = number.nextDouble();
        }
        for (int i = 1; i < 5; i++) {
            for (int j = 0; j < 5; j++) {
                if (i==2)f[i][j]=Math.log(Math.pow(x[i-1][j],2));
                else if (i==3) f[i][j]=Math.log(x[i-1][j]);
                f[i][j]=x[i-1][j];
            }
        }
        return handler.ex(f, y, X);
    }
}
